…
Then, explore the other functions, such as one that will calculate
per-game statistics for each team in each season. DIfferent data will be
used depending on whether you specify stage 1 or stage 2 data from the
competition. For example, you can calculate the mean, standard
deviation, or both, depending on your input, for several statistics.
Here’s an example of using both:

``` r
#using stage 1 data, calculate the mean and sd of several statistics
perGameStats(stage = 1, mean, sd)
#> # A tibble: 6,187 x 58
#>    Season TeamID meanScore sdScore meanOppScore sdOppScore meanFGM sdFGM meanFGA
#>     <int>  <int>     <dbl>   <dbl>        <dbl>      <dbl>   <dbl> <dbl>   <dbl>
#>  1   2003   1102      57.2   13.9          57        12.2     19.1  4.40    39.8
#>  2   2003   1103      78.8   15.3          78.1      12.8     27.1  5.07    55.9
#>  3   2003   1104      69.3   11.4          65         8.65    24.0  4.98    57.2
#>  4   2003   1105      71.8   13.1          76.7      14.0     24.4  4.73    61.6
#>  5   2003   1106      63.6   11.4          63.8      12.6     23.4  4.43    55.3
#>  6   2003   1107      65.9   11.7          75.7      13.7     24.0  4.17    57.5
#>  7   2003   1108      69.1    9.85         73.1      12.5     24.9  3.36    58.7
#>  8   2003   1110      66.4    8.85         61.9       8.49    23.2  3.92    53.5
#>  9   2003   1111      83.3   13.3          81.7      15.5     28.6  4.77    64.5
#> 10   2003   1112      85.2   10.4          70.2       9.36    30.3  3.94    65.7
#> # ... with 6,177 more rows, and 49 more variables: sdFGA <dbl>, meanFGM3 <dbl>,
#> #   sdFGM3 <dbl>, meanFGA3 <dbl>, sdFGA3 <dbl>, meanFTM <dbl>, sdFTM <dbl>,
#> #   meanFTA <dbl>, sdFTA <dbl>, meanOR <dbl>, sdOR <dbl>, meanDR <dbl>,
#> #   sdDR <dbl>, meanAst <dbl>, sdAst <dbl>, meanTO <dbl>, sdTO <dbl>,
#> #   meanStl <dbl>, sdStl <dbl>, meanBlk <dbl>, sdBlk <dbl>, meanPF <dbl>,
#> #   sdPF <dbl>, meanOppFGM <dbl>, sdOppFGM <dbl>, meanOppFGA <dbl>,
#> #   sdOppFGA <dbl>, meanOppFGM3 <dbl>, sdOppFGM3 <dbl>, meanOppFGA3 <dbl>, ...
```
…
